{
	"_id": "507f1f77",
	"firstName": "John",
	"lastName": "Smith",
	"email": "johnsmith@gmail.com",
	"username": "johnsmith",
	"isAdmin": false,
	"mobileNumber": "091234567",
	"datetimeRegistered": "2023-07-25T15:00:00.00Z"
}